Audinalytics: Reproduzindo Análises Feitas no IDEA - Parte I
…
digitos_75 <- somervile %>% 
  filter(str_detect(Amount, "^75"))

nrow(digitos_75)

[1] 690

Tarefa 20

Quais são os departamentos associados/vinculados a cada “GovCategory”?

somervile %>% 
  distinct(GovCategory, Department)

# A tibble: 36 x 2
   GovCategory        Department                
   <chr>              <chr>                     
 1 Public Works       DEPARTMENT OF PUBLIC WORKS
 2 Education          SCHOOL ADMINISTRATION     
 3 General Government OSPCD ADMINISTRATION      
 4 General Government PERSONNEL DEPARTMENT      
 5 General Government TRAFFIC AND PARKING       
 6 General Government WORKER COMPENSATION       
 7 General Government COUNCIL ON AGING          
 8 General Government SOMERVILLE PUBLIC LIBRARY 
 9 General Government RECREATION AND YOUTH      
10 General Government POLICE DEPARTMENT         
# ... with 26 more rows
…
